.Xil/Vivado-8800-DESKTOP-JUTT43E/hw_ila_data_1/zip_work/waveform.vcd
$date
        2025-Jun-26 11:21:32
$end
$version
        Vivado v2023.2.2 (64-bit)
$end
$timescale
        1ps
$end
$scope module dut $end
$var reg 1 " dac_inst/in_clk $end
$var reg 1 # dac_inst/in_reset $end
$var reg 1 $ dac_inst/in_sdo $end
$var reg 1 % dac_inst/p_0_in11_in $end
$var reg 1 & dac_inst/out_sclk $end
$var reg 1 ' dac_inst/out_ss $end
$var reg 1 ( dac_inst/out_sdio $end
$var reg 16 ) dac_inst/out_data [15:0] $end
$var reg 1 9 _TRIGGER $end
$var reg 1 : _WINDOW $end
$var reg 1 ; _GAP $end
$upscope $end
$enddefinitions $end
#0
$dumpvars
0"
1#
0$
1%
1&
1'
0(
b1111111111111111 )
09
1:
0;
$end
#47
0'
#50
0&
#51
b0 )
#56
1&
#62
0&
#68
1&
#74
0&
#80
1&
#83
b1111111111111111 )
#86
0&
#92
1&
#98
0&
#104
1&
#110
0&
#112
1(
#115
b0 )
#116
1&
#122
0&
#124
0(
#128
1&
#134
0&
#140
1&
#146
0&
#147
b1111111111111111 )
#152
1&
#158
0&
#164
1&
#170
0&
#176
1&
#179
b0 )
#182
0&
#188
1&
#194
0&
#200
1&
#206
0&
#211
b1111111111111111 )
#212
1&
#218
0&
#224
1&
#230
0&
#236
1&
#240
1'
#307
0'
#310
0&
b0 )
#316
1&
#322
0&
#328
1&
#334
0&
#340
1&
#342
b1111111111111111 )
#346
0&
#352
1&
#358
0&
#364
1&
#370
0&
#372
1(
#374
b0 )
#376
1&
#382
0&
#384
0(
#388
1&
#394
0&
#400
1&
#406
0&
b1111111111111111 )
#412
1&
#418
0&
#424
1&
#430
0&
#436
1&
#438
b0 )
#442
0&
#448
1&
#454
0&
#460
1&
#466
0&
#470
b1111111111111111 )
#472
1&
#478
0&
#484
1&
#490
0&
#496
1&
#500
1'
#512
19
#567
0'
#569
b0 )
#570
0&
#576
1&
#582
0&
#588
1&
#594
0&
#600
1&
#601
b1111111111111111 )
#606
0&
#612
1&
#618
0&
#624
1&
#630
0&
#632
1(
#633
b0 )
#636
1&
#642
0&
#644
0(
#648
1&
#654
0&
#660
1&
#665
b1111111111111111 )
#666
0&
#672
1&
#678
0&
#684
1&
#690
0&
#696
1&
#697
b0 )
#702
0&
#708
1&
#714
0&
#720
1&
#726
0&
#729
b1111111111111111 )
#732
1&
#738
0&
#744
1&
#750
0&
#756
1&
#760
1'
#827
0'
#828
b0 )
#830
0&
#836
1&
#842
0&
#848
1&
#854
0&
#860
1&
b1111111111111111 )
#866
0&
#872
1&
#878
0&
#884
1&
#890
0&
#892
1(
b0 )
#896
1&
#902
0&
#904
0(
#908
1&
#914
0&
#920
1&
#924
b1111111111111111 )
#926
0&
#932
1&
#938
0&
#944
1&
#950
0&
#956
1&
b0 )
#962
0&
#968
1&
#974
0&
#980
1&
#986
0&
#988
b1111111111111111 )
#992
1&
#998
0&
#1004
1&
#1010
0&
#1016
1&
#1020
1'
